{
    "KPlugin": {
        "Authors": [
            {
                "Email": "plasma-devel@kde.org",
                "Name": "Gregor Tätzner",
                "Name[ar]": "Gregor Tätzner",
                "Name[az]": "Gregor Tätzner",
                "Name[ca@valencia]": "Gregor Tätzner",
                "Name[ca]": "Gregor Tätzner",
                "Name[cs]": "Gregor Tätzner",
                "Name[de]": "Gregor Tätzner",
                "Name[en_GB]": "Gregor Tätzner",
                "Name[es]": "Gregor Tätzner",
                "Name[eu]": "Gregor Tätzner",
                "Name[fi]": "Gregor Tätzner",
                "Name[fr]": "Gregor Tätzner",
                "Name[hu]": "Gregor Tätzner",
                "Name[ia]": "Gregor Tätzner",
                "Name[id]": "Gregor Tätzner",
                "Name[it]": "Gregor Tätzner",
                "Name[ko]": "Gregor Tätzner",
                "Name[lt]": "Gregor Tätzner",
                "Name[nl]": "Gregor Tätzner",
                "Name[nn]": "Gregor Tätzner",
                "Name[pl]": "Gregor Tätzner",
                "Name[pt]": "Gregor Tätzner",
                "Name[pt_BR]": "Gregor Tätzner",
                "Name[ro]": "Gregor Tätzner",
                "Name[ru]": "Gregor Tätzner",
                "Name[sk]": "Gregor Tätzner",
                "Name[sl]": "Gregor Tätzner",
                "Name[sv]": "Gregor Tätzner",
                "Name[ta]": "கிரெகோர் டாட்ஸ்னர்",
                "Name[tr]": "Gregor Tätzner",
                "Name[uk]": "Gregor Tätzner",
                "Name[vi]": "Gregor Tätzner",
                "Name[x-test]": "xxGregor Tätznerxx",
                "Name[zh_CN]": "Gregor Tätzner"
            }
        ],
        "Category": "Windows and Tasks",
        "Description": "Shows the activity manager",
        "Description[ar]": "يظهر مدير الأنشطة",
        "Description[az]": "Fəaliyyətlər menecerini göstərir",
        "Description[ca@valencia]": "Mostra el gestor d'activitats",
        "Description[ca]": "Mostra el gestor d'activitats",
        "Description[cs]": "Zobrazí správce aktivit",
        "Description[de]": "Zeigt die Aktivitätenverwaltung an",
        "Description[en_GB]": "Shows the activity manager",
        "Description[es]": "Muestra el gestor de actividades",
        "Description[eu]": "Jarduera-kudeatzailea erakusten du",
        "Description[fi]": "Näyttää aktiviteettienhallinnan",
        "Description[fr]": "Affiche le gestionnaire d'activités",
        "Description[hu]": "Aktivitáskezelő megjelenítése",
        "Description[ia]": "Monstra le gerente de activitate",
        "Description[id]": "Tampilkan pengelola aktivitas",
        "Description[it]": "Mostra il gestore delle attività",
        "Description[ko]": "활동 관리자 표시",
        "Description[lt]": "Rodo veiklų tvarkytuvę",
        "Description[nl]": "Toont de activiteitenbeheerder",
        "Description[nn]": "Viser aktivitets­handsamaren",
        "Description[pa]": "ਸਰਗਰਮੀ ਮੈਨੇਜਰ ਵੇਖਾਉਂਦਾ ਹੈ",
        "Description[pl]": "Zarządza aktywnościami",
        "Description[pt]": "Mostra o gestor de actividades",
        "Description[pt_BR]": "Mostra o gerenciador de atividades",
        "Description[ro]": "Arată Gestionarul de activități",
        "Description[ru]": "Показывает диспетчер комнат",
        "Description[sk]": "Ukáže správcu aktivít",
        "Description[sl]": "Prikaži upravljalnika dejavnosti",
        "Description[sv]": "Visar Aktivitetshanteraren",
        "Description[ta]": "செயல்பாடு மேலாளியை காட்டும்",
        "Description[tr]": "Etkinlik yöneticisini gösterir",
        "Description[uk]": "Показує вікно керування просторами дій",
        "Description[vi]": "Hiện trình quản lí Hoạt động",
        "Description[x-test]": "xxShows the activity managerxx",
        "Description[zh_CN]": "显示活动管理器",
        "EnabledByDefault": true,
        "Icon": "activities",
        "Id": "org.kde.plasma.showActivityManager",
        "License": "GPL-2.0+",
        "Name": "Activities",
        "Name[ar]": "الأنشطة",
        "Name[ast]": "Actividaes",
        "Name[az]": "Fəaliyyətlər",
        "Name[bg]": "Дейности",
        "Name[bs]": "Motor aktivnosti",
        "Name[ca@valencia]": "Activitats",
        "Name[ca]": "Activitats",
        "Name[cs]": "Aktivity",
        "Name[da]": "Aktiviteter",
        "Name[de]": "Aktivitäten",
        "Name[el]": "Δραστηριότητες",
        "Name[en_GB]": "Activities",
        "Name[es]": "Actividades",
        "Name[et]": "Tegevused",
        "Name[eu]": "Jarduerak",
        "Name[fa]": "فعالیتها",
        "Name[fi]": "Aktiviteetit",
        "Name[fr]": "Activités",
        "Name[ga]": "Gníomhaíochtaí",
        "Name[gl]": "Actividades",
        "Name[he]": "פעילויות",
        "Name[hr]": "Aktivnosti",
        "Name[hu]": "Aktivitások",
        "Name[ia]": "Activitates",
        "Name[id]": "Activities",
        "Name[is]": "Virknistjóri",
        "Name[it]": "Attività",
        "Name[ja]": "アクティビティ",
        "Name[kk]": "Белсенділіктер",
        "Name[km]": "សកម្មភាព",
        "Name[ko]": "활동",
        "Name[lt]": "Veiklos",
        "Name[lv]": "Aktivitātes",
        "Name[ml]": "പ്രവര്‍ത്തികള്‍",
        "Name[mr]": "कार्यपध्दती",
        "Name[nb]": "Aktiviteter",
        "Name[nds]": "Aktiviteten",
        "Name[nl]": "Activiteiten",
        "Name[nn]": "Aktivitetar",
        "Name[pa]": "ਸਰਗਰਮੀਆਂ",
        "Name[pl]": "Aktywności",
        "Name[pt]": "Actividades",
        "Name[pt_BR]": "Atividades",
        "Name[ro]": "Activități",
        "Name[ru]": "Комнаты",
        "Name[sk]": "Aktivity",
        "Name[sl]": "Dejavnosti",
        "Name[sr@ijekavian]": "активности",
        "Name[sr@ijekavianlatin]": "aktivnosti",
        "Name[sr@latin]": "aktivnosti",
        "Name[sr]": "активности",
        "Name[sv]": "Aktiviteter",
        "Name[ta]": "செயல்பாடுகள்",
        "Name[tg]": "Фаъолиятҳо",
        "Name[tr]": "Etkinlikler",
        "Name[ug]": "پائالىيەتلەر",
        "Name[uk]": "Простори дій",
        "Name[vi]": "Hoạt động",
        "Name[wa]": "Activités",
        "Name[x-test]": "xxActivitiesxx",
        "Name[zh_CN]": "活动",
        "Name[zh_TW]": "活動",
        "ServiceTypes": [
            "Plasma/Applet"
        ],
        "Version": "1.0",
        "Website": "https://www.kde.org/plasma-desktop"
    },
    "X-Plasma-API": "declarativeappletscript",
    "X-Plasma-MainScript": "ui/main.qml",
    "X-Plasma-Provides": [
        "org.kde.plasma.activities"
    ]
}
